ggcor
…
## Loading required package: usethis

if(!require(ggcor))
  devtools::install_github("houyunhuang/ggcor")

## Loading required package: ggcor

## Loading required package: ggplot2

suppressWarnings(suppressMessages(library("ggcor")))
corr <- cor(mtcars)
df <- as_cor_tbl(corr)
df ## return a tibble

## # A tibble: 121 x 3
##       x     y      r
## * <int> <int>  <dbl>
## 1     1    11  1    
## 2     1    10 -0.852
## 3     1     9 -0.848
## 4     1     8 -0.776
## 5     1     7  0.681
## #  with 116 more rows
## Extra attributes:
## xname: mpg cyl disp hp drat wt qsec vs am gear carb
## yname: carb gear am vs qsec wt drat hp disp cyl mpg
## type: full
## show.diag: TRUE
…
